{
	"AISP": {
		"HEADER": {
			"LOGOURL": "https://d21fhsvwv2t3le.cloudfront.net/v3/boimayrelireland/consent-ui/img/BOI_logo.png",
			"BANK_LOGO_IMAGE_ALTERNET_LABEL": "Bank of Ireland logo",
			"THIRD_PARTY_LABEL": "Manage Third Party access to your Bank of Ireland accounts",
			"ACCOUNT_ACCESS_LABEL": "Accounts Access"
		},
		"FOOTER": {
			"ABOUT_US_LABEL": "About us",
			"PRIVACY_POLICY_LABEL": "Cookie and Privacy policy",
			"TNC_LABEL": "Terms and conditions",
			"HELP_LABEL": "Help",
			"LINK_TOOLTIP_NEW_WINDOW": "Link will open in a new window.",
			"ABOUT_US_URL": "https://www.bankofireland.com/accountaccess/aboutus",
			"PRIVACY_POLICY_URL": "https://www.bankofireland.com/legal/privacy-statement",
			"TNC_URL": "https://www.365online.com/online365/spring/termsAndConditions",
			"HELP_URL": "https://www.bankofireland.com/accountaccess/help",
			"REGULATORY_LABEL": "Bank of Ireland (UK) plc is authorised by the Prudential Regulation Authority and regulated by the Financial Conduct Authority and the Prudential Regulation Authority."
		},
		"ACCOUNT_ACCESS_FOOTER": {
			"ABOUT_US_LABEL": "About Us",
			"PRIVACY_POLICY_LABEL": "Cookie and Privacy Policy",
			"TNC_LABEL": "Terms and Conditions",
			"HELP_LABEL": "Help",
			"LINK_TOOLTIP_NEW_WINDOW": "Link will open in a new window.",
			"ABOUT_US_URL": "https://www.bankofireland.com/accountaccess/aboutus",
			"PRIVACY_POLICY_URL": "https://www.bankofireland.com/legal/privacy-statement",
			"TNC_URL": "https://www.365online.com/online365/spring/termsAndConditions",
			"HELP_URL": "https://www.bankofireland.com/accountaccess/help",
			"REGULATORY_LABEL": "Bank of Ireland (UK) plc is authorised by the Prudential Regulation Authority and regulated by the Financial Conduct Authority and the Prudential Regulation Authority."
		},
		"DENY_AUTHORISATION_POPUP": {
			"YES_BUTTON_LABEL": "Yes - deny authorisation",
			"CLOSE_BUTTON_LABEL": "Close",
			"NO_BUTTON_LABEL": "No - return to page",
			"DENY_AUTHORISATION_POPUP_MESSAGE_PRE": "Selecting 'Yes - deny authorisation' will cancel your request and return you to the Third Party Provider.",
			"DENY_AUTHORISATION_POPUP_MESSAGE_POST": "",
			"DENY_AUTHORISATION_HEADER": "Deny Authorisation",
			"POPUP_DISPLAYED_SCREENREADER_LABEL": "Pop Up Open",
			"PRESS_NO_SCREENREADER_LABEL": "button will close the pop up.",
			"PRESS_YES_SCREENREADER_LABEL": "button will deny authorisation"
		},
		"ACCESS_AUTHORISATION_POPUP": {
			"LOGO_HEADER": "img/boi_logo_blue.png",
			"LOGO_TEXT":"Bank of Ireland logo",
			"ACCESS_AUTHORISATION_HEADER": "Congratulations!",
			"ACCESS_AUTHORISATION_POPUP_MESSAGE_PRE": "Your transaction is complete. You have securely logged off from the bank and will now be redirected back to the third party site.",
			"ACCESS_AUTHORISATION_POPUP_MESSAGE_POST": "No personal information has been shared with the third party. You will now be logged out of this service.",
			"POPUP_DISPLAYED_SCREENREADER_LABEL": "Pop Up Open"
		},
		"CANCEL_AUTHORISATION_POPUP": {
			"LOGO_HEADER": "img/boi_logo_blue.png",
			"ACCESS_AUTHORISATION_HEADER": "Authorisation has not been granted.",
			"ACCESS_AUTHORISATION_POPUP_MESSAGE_PRE": "Your transaction has been canceled. You will now be redirected back to the third party site.",
			"ACCESS_AUTHORISATION_POPUP_MESSAGE_POST": "No personal information has been shared with the third party. You will now be logged out of this service.",
			"POPUP_DISPLAYED_SCREENREADER_LABEL": "Pop Up Open"
		},
		"SESSION_TIMEOUT_POPUP": {
			"SESSION_TIMEOUT_POPUP_HEADER": "Session timeout",
			"SESSION_TIMEOUT_POPUP_MESSAGE": "Your session has timed out and you must return to the third party site.",
			"POPUP_DISPLAYED_SCREENREADER_LABEL": "Pop Up Open",
			"OK_BUTTON_LABEL": "Return to third party",
			"PRESS_NO_SCREENREADER_LABEL": "button will close the pop up."
		},
		"JOINT_ACCOUNT_POPUP": {
			"JOINT_ACCOUNT_POPUP_HEADER": "A note on joint accounts",
			"JOINT_ACCOUNT_POPUP_MESSAGE": "Selection of joint accounts for account information sharing may be disabled if we need additional authorization from one or more of the account holders.",
			"JOINT_ACCOUNT_FIND_OUT_LINK": "Find out more in our help section.",
			"JOINT_ACCOUNT_LINK_SCREENREADER": "link will open in new window",
			"JOINT_ACCOUNT_SCREENREADER_LABEL": "Pop Up Open",
			"JOINT_ACCOUNT_HELP_LINK": "https://www.bankofireland.com/accountaccess/help",
			"OK_BUTTON_LABEL": "OK",
			"OK_BUTTON_SCREENREADER_LABEL": "button will close the pop up.",
			"POPUP_DISPLAYED_SCREENREADER_LABEL": "Pop Up Open"
		},
		"ACCOUNT_SELECTION_PAGE": {
			"PAGE_INSTRUCTION": {
				"ACCOUNT_SELECTION_HEADER": "Account selection",
				"PAGE_INSTRUCTION_PRE_LABEL": "",
				"PAGE_INSTRUCTION_POST_LABEL": "has requested access to your accounts."
			},
			"PAGE_DESCRIPTION": {
				"PAGE_DESCRIPTION_HEADER": "Finserv (FINSERV app) has requested access to your accounts.",
				"PAGE_DESCRIPTION_LABEL": "To complete the process select the account(s) you want to authorise access to and confirm by hitting the <b> Authorise account access </b> button."
			},
			"SELECT_ACCOUNT_TABLE": {
				"SELECT_ACCOUNT_HEADER": "Select account(s)",
				"SELECT_ACCOUNT_TABLE_CAPTION": "Select account",
				"ACCOUNT_TYPE_COLUMN_HEADER": "Account Type",
				"CURRENCY_COLUMN_HEADER": "Currency",
				"BALANCE_COLUMN_HEADER": "Balance",
				"ACCOUNT_NUMBER_COLUMN_HEADER": "IBAN / Card No.",
				"NICK_NAME_COLUMN_HEADER": "Nickname",
				"SELECT_ALL_COLUMN_HEADER": "Select all",
				"DISABLED_POPOVER_MSG": "Selection of joint accounts for account information sharing may be disabled if we need additional authorisation from one or more of the account holders. <a href='https://www.bankofireland.com/accountaccess/help' target='_blank'><span title='Link will open in a new window.'>Find out more in our help section</span><span class='sr-only'>Link will open in a new window.</span></a>.",
				"DISABLED_POPOVER_SCREENREADER_MSG": "This tooltip is for joint account. Please see joint account note above.",
				"DISABLED_ACCOUNT_MSG": "<b>A note on joint accounts - </b> Selection of joint accounts for account information sharing may be disabled if we need additional authorisation from one or more of the account holders. <a href='https://www.bankofireland.com/accountaccess/help' target='_blank'><span title='Link will open in a new window.'>Find out more in our help section</span><span class='sr-only'>Link will open in a new window.</span></a>.",
				"CHECKBOX_SCREENREADER_LABEL": "checkbox"
			},
			"PAGINATION": {
				"SELECT_ACCOUNT_PAGINATION_SCREENREADER_LABEL": "Select Accounts Pagination"
			},
			"NOT_SEEING_TEXT": "Not seeing the account(s) you're looking for? Some accounts are restricted -",
			"FIND_OUT_WHY_LABEL": "find out why",
			"FIND_OUT_WHY_SCREENREADER_TITLE":"Link will go to important information section",
			"CONSENT_VALIDITY": {
				"PRE_TILL_DATE_LABEL": "The consent is valid until ",
				"POST_TILL_DATE_LABEL": ". You can revoke access to this service through the Third Party provider or through 365 online / BOL.",
				"EXPIRY_INVALID_DATE_LABEL": "The consent provided is valid for an indefinite period until it is revoked. You can revoke access to this service through the Third Party provider or through 365 online / BOL."
			},
			"TRANSACTION_PERMISSION": {
				"FROM_DATE_LABEL": "From:",
				"TO_DATE_LABEL": "To:",
				"TRANSACTION_ACCESS_DATE_HEADER": "Requested transaction access"
			},
			"SELECTED_ACCOUNT_TABLE": {
				"SELECTED_ACCOUNT_HEADER": "Selected account(s)",
				"SELECTED_ACCOUNT_TABLE_CAPTION": "Selected account",
				"ACCOUNT_TYPE_COLUMN_HEADER": "Account type",
				"CURRENCY_COLUMN_HEADER": "Currency",
				"ACCOUNT_NUMBER_COLUMN_HEADER": "IBAN / Account No.",
				"NICK_NAME_COLUMN_HEADER": "Nickname",
				"REMOVE_COLUMN_HEADER": "Remove",
				"REMOVE_SELECTED_ACCOUNT_SCREENREADER_LABEL": "Remove selected account "
			},
			"IMPORTANT_INFORMATION": {
				"IMPORTANT_INFORMATION_HEADING1": "Important information",
				"IMPORTANT_INFORMATION_DESCRIPTION1": "You can revoke access to this service through the Third Party provider or by calling Bank of Ireland.",
				"IMPORTANT_INFORMATION_HEADING2": "",
				"IMPORTANT_INFORMATION_DESCRIPTION2": "We will provide permissions information to the extent that it is currently available on our digital banking channels.",
				"IMPORTANT_INFORMATION_HEADING3": "",
				"IMPORTANT_INFORMATION_DESCRIPTION3": "",
				"IMPORTANT_INFORMATION_HEADING4": "",
				"IMPORTANT_INFORMATION_DESCRIPTION4": "",
				"IMPORTANT_INFORMATION_HEADING5": "",
				"IMPORTANT_INFORMATION_DESCRIPTION5": ""
			},
			"BUTTONS": {
				"RETURN_TO_TPP_BUTTON_LABEL": "Return to third party site",
				"CANCEL_BUTTON_LABEL": "Cancel",
				"SELECT_ALL_BUTTON_LABEL": "Select all",
				"SELECT_NONE_BUTTON_LABEL": "Select none",
				"CONTINUE_BUTTON_LABEL": "Continue",
				"RETRY_BUTTON_LABEL": "Retry",
				"PRESS_CANCEL_SCREENREADER_LABEL": "Cancel button will open the pop up.",
				"BACK_TO_TOP_BUTTON_LABEL": "Back to top",
				"BACK_TO_TOP_BUTTON_VIEW_REQUESTED_PERMISSION": "Button will go to view requested permission button",
				"BACK_TO_TOP_BUTTON_NOT_SEEING_ACCOUNTS": "Button will go to Not seeing account(s) info",
				"AUTHORISE_ACCOUNT_ACESS_BUTTON_LABEL": "Authorise account access",
				"DENY_AUTHORISATION_BUTTON_LABEL": "Deny Authorisation",
				"PRESS_DENY_SCREENREADER_LABEL": "Deny Authorisation button will open the pop up.",
				"VIEW_REQUESTED_PERMISSION_BUTTON_LABEL": "VIEW REQUESTED PERMISSIONS",
				"VIEW_REQUESTED_PERMISSION_BUTTON_SCREENREADER_LABEL":"Button will go to requested permission section",
				"PRESS_CANCEL_SCREENREADER_BUTTON_LABEL": "Cancel button will open the pop up.",
				"ACCOUNT_SELECT_INFO_LABEL": "Please choose an account from the list above to proceed",
				"ACCOUNT_SELECTED_INFO_LABEL": "Accounts selected:",
				"ACCOUNT_SELECTED_OF_LABEL": "of",
				"AUTHORISE_ACCOUNT_ACTION_BUTTON_SCREENREADER_LABEL":"This will authorise account access"
			}
		},
		"REVIEW_CONFIRM_PAGE": {
			"PAGE_INSTRUCTION": {
				"PAGE_INSTRUCTION_PRE_LABEL": "",
				"PAGE_INSTRUCTION_POST_LABEL": "has requested repeat access to the following information.",
				"REVIEW_CONFIRM_HEADER": "Review and confirm"
			},
			"SELECTED_ACCOUNT_TABLE": {
				"SELECTED_ACCOUNT_HEADER": "Selected account(s)",
				"SELECTED_ACCOUNT_TABLE_CAPTION": "Selected account",
				"ACCOUNT_TYPE_COLUMN_HEADER": "Account type",
				"CURRENCY_COLUMN_HEADER": "Currency",
				"ACCOUNT_NUMBER_COLUMN_HEADER": "IBAN / Account No.",
				"NICK_NAME_COLUMN_HEADER": "Nickname",
				"SHOW_ALL_LABEL": "Show all",
				"SHOW_LESS_LABEL": "Show less"
			},
			"PERMISSIONS": {
				"PERMISSION_HEADER": "Requested permissions",
				"PERMISSION_LABEL": {
					"READACCOUNTSBASIC": "Basic account information",
					"READACCOUNTSDETAIL": "Detailed account information",
					"READBENEFICIARIESBASIC": "Basic payee information",
					"READBENEFICIARIESDETAIL": "Detailed payee information",
					"READSTANDINGORDERSBASIC": "Basic Standing Order information",
					"READSTANDINGORDERSDETAIL": "Detailed Standing Order information",
					"ALLREADTRANSACTIONSBASIC": "Basic transaction information",
					"READTRANSACTIONSCREDITSBASIC": "Basic transaction information",
					"READTRANSACTIONSDEBITSBASIC": "Basic transaction information",
					"ALLREADTRANSACTIONSDETAIL": "Detailed transaction information",
					"READTRANSACTIONSCREDITSDETAIL": "Detailed transaction information",
					"READTRANSACTIONSDEBITSDETAIL": "Detailed transaction information",
					"READPRODUCTS": "Product Information",
					"READACCOUNTS": "Basic account information",
					"READACCOUNTSSENSITIVE": "Account Identification Details",
					"READBALANCES": "Balance information",
					"READBENEFICIARIES": "Basic Beneficiary Details",
					"READBENEFICIARIESSENSITIVE": "Identification Details For The Beneficiar",
					"READDIRECTDEBITS": "Direct debit information",
					"READSTANDINGORDERS": "Standing Order Information",
					"READSTANDINGORDERSSENSITIVE": "Identification Details For The Standing Order",
					"READTRANSACTIONS": "Basic transaction information",
					"READTRANSACTIONSCREDITS": "Only Credit Transactions",
					"READTRANSACTIONSDEBITS": "Only Debit Transactions",
					"READTRANSACTIONSSENSITIVE": "Transaction Data Elements Which May Hold Silent Party Details",
					"READSTATEMENTSBASIC" : "Basic statement information",
					"READSTATEMENTSDETAIL" : "Detailed statement information",
    				"READOFFERS" : "Offers available on your account",
    				"READPARTY" : "Basic customer information",
 					"READPARTYPSU" : "Detailed customer information",
    				"READSCHEDULEDPAYMENTSBASIC" : "Recurring and future dated payments",
    				"READSCHEDULEDPAYMENTSDETAIL" : "Details of recurring and future dated payments",
    				"READPAN" : "Read PAN in clear"
				},
				"PERMISSION_DESCRIPTIONS": {
					"READACCOUNTSBASIC_ELEMENTS": "Includes information such as account name and currency",
					"READACCOUNTSDETAIL_ELEMENTS": "Includes basic account information along with more details such as the IBAN/ Account No.",
					"READBENEFICIARIESBASIC_ELEMENTS": "Includes information such as the name of the payee",
					"READBENEFICIARIESDETAIL_ELEMENTS": "Includes basic payee information along with the account details of the payee",
					"READSTANDINGORDERSBASIC_ELEMENTS": "Includes details of Standing Orders such as the currency, frequency and payment dates",
					"READSTANDINGORDERSDETAIL_ELEMENTS": "Includes basic Standing Order details along with account details of the creditor",
					"ALLREADTRANSACTIONSBASIC_ELEMENTS": "Includes information on transactions such as the amount, currency, status of transaction among other information",
					"READTRANSACTIONSCREDITSBASIC_ELEMENTS": "Includes information on credit transactions only, such as the amount, currency, status of transaction among other information",
					"READTRANSACTIONSDEBITSBASIC_ELEMENTS": "Includes information on debit transactions only, such as the amount, currency, status of transaction among other information",
					"ALLREADTRANSACTIONSDETAIL_ELEMENTS": "Includes basic information on transactions along with transaction narrative, running balance and merchant details if any",
					"READTRANSACTIONSCREDITSDETAIL_ELEMENTS": "Includes basic information on credit transactions only along with transaction narrative, running balance and merchant details if any",
					"READTRANSACTIONSDEBITSDETAIL_ELEMENTS": "Includes basic information on debit transactions only, along with transaction narrative, running balance and merchant details if any",
					"READPRODUCTS_ELEMENTS": "Includes the product type e.g. Current Account",
					"READACCOUNTS_ELEMENTS": "OBReadAccount1, Account, AccountId, Currency, Nickname",
					"READACCOUNTSSENSITIVE_ELEMENTS": "Account, SchemeName, Identification, Name, SecondaryIdentification, Servicer, SchemeName, Identification",
					"READBALANCES_ELEMENTS": "Includes information such as the amount, currency and type of balance",
					"READBENEFICIARIES_ELEMENTS": "OBReadBeneficiary1, Beneficiary, AccountId, BeneficiaryId, CreditorReferenceInformation",
					"READBENEFICIARIESSENSITIVE_ELEMENTS": "Servicer, SchemeName, Identification, CreditorAccount, SchemeName, Identification, Name, SecondaryIdentification",
					"READDIRECTDEBITS_ELEMENTS": "Includes details of direct debits such as the name of the service user and the most recent payment",
					"READSTANDINGORDERS_ELEMENTS": "OBReadStandingOrder1, StandingOrder, AccountId, StandingOrderId, Currency, Frequency, CreditorReferenceInformation, FirstPaymentDate, FirstPaymentAmount, Currency, NextPaymentDate, NextPaymentAmount, Currency, FinalPaymentDate, FinalPaymentAmount, Currency",
					"READSTANDINGORDERSSENSITIVE_ELEMENTS": "Servicer, SchemeName, Identification, CreditorAccount, SchemeName, Identification, Name, SecondaryIdentification",
					"READTRANSACTIONS_ELEMENTS": "Includes basic information on transactions along with transaction narrative, running balance and merchant details if any",
					"READTRANSACTIONSCREDITS_ELEMENTS": "Includes basic information on credit transactions only along with transaction narrative, running balance and merchant details if any",
					"READTRANSACTIONSDEBITS_ELEMENTS": "Includes basic information on debit transactions only, along with transaction narrative, running balance and merchant details if any",
					"READTRANSACTIONSSENSITIVE_ELEMENTS": "TransactionInformation, Balance, Amount, Currency, CreditDebitIndicator, Type, MerchantDetails, Name, MerchantCategoryCode",
					"READSTATEMENTSBASIC_ELEMENTS" : "All statement information excluding specific amounts related to various balance types, payments due etc.",
					"READSTATEMENTSDETAIL_ELEMENTS" : "All statement information including specific amounts related to various balance types, payments due etc.",
					"READOFFERS_ELEMENTS" : "Includes information on offers available on your account",
					"READPARTY_ELEMENTS" : "Your address, telephone numbers and email address as held by your bank/card issuer",
					"READPARTYPSU_ELEMENTS" : "Your address, telephone numbers and email address as held by your bank/card issuer",
					"READSCHEDULEDPAYMENTSBASIC_ELEMENTS" : "Includes basic information - scheduled dates, amount, reference. Does not include information about the payee",
					"READSCHEDULEDPAYMENTSDETAIL_ELEMENTS" : "Includes detailed information - scheduled dates, amount, reference, payee details",
					"READPAN_ELEMENTS" : "Card number in clear"
				}
			},
			"TRANSACTION_PERMISSION": {
				"TRANSACTION_ACCESS_DATE_HEADER": "Requested transaction access",
				"FROM_DATE_LABEL": "From date:",
				"TO_DATE_LABEL": "To date:",
				"NO_CONSENT_DATE_LABEL": "-"
			},
			"CONSENT_VALIDITY": {
				"PRE_TILL_DATE_LABEL": "The consent is valid until ",
				"POST_TILL_DATE_LABEL": "",
				"EXPIRY_INVALID_DATE_LABEL": "This consent is valid until -"
			},
			"ACCEPT_CONSENT_REQUEST_LABEL": "I confirm and authorise the sharing of the data as set out above.",
			"BUTTONS": {
				"BACK_BUTTON_LABEL": "Back",
				"CANCEL_BUTTON_LABEL": "Cancel",
				"CONFIRM_BUTTON_LABEL": "Confirm",
				"CONFIRM_BUTTON_ENABLE_SCREENREADER_LABEL": "Confirm button enable",
				"PRESS_CANCEL_SCREENREADER_LABEL": "Cancel button will open the pop up."
			},
			"IMPORTANT_INFORMATION": {
				"IMPORTANT_INFORMATION_HEADING1": "Important information",
				"IMPORTANT_INFORMATION_DESCRIPTION1": "You can revoke access to this service through the Third Party provider or by calling Bank of Ireland.",
				"IMPORTANT_INFORMATION_HEADING2": "",
				"IMPORTANT_INFORMATION_DESCRIPTION2": "We will provide permissions information to the extent that it is currently available on our digital banking channels.",
				"IMPORTANT_INFORMATION_HEADING3": "",
				"IMPORTANT_INFORMATION_DESCRIPTION3": "",
				"IMPORTANT_INFORMATION_HEADING4": "",
				"IMPORTANT_INFORMATION_DESCRIPTION4": "",
				"IMPORTANT_INFORMATION_HEADING5": "",
				"IMPORTANT_INFORMATION_DESCRIPTION5": ""
			}
		},
		"AUTHORISATION_RENEWAL_PAGE": {
			"PAGE_INSTRUCTION": {
				"AUTHORISATION_RENEWAL_HEADER": "Authorisation Renewal",
				"PAGE_INSTRUCTION_LABEL_PART1": "<b>Note: For security purposes, your authorisation must be renewed every 90 days in order for</b>",
				"PAGE_INSTRUCTION_LABEL_PART2": " <b>to continue accessing your data</b>",
				"PAGE_INSTRUCTION_LABEL_PART3": "You previously consented to give",
				"PAGE_INSTRUCTION_LABEL_PART4": " access to the below information.",
				"PAGE_INSTRUCTION_LABEL_PART5": "has requested your renewed authorisation for repeat access to the agreed upon information."
			},
			"BUTTONS": {
				"VIEW_REQUESTED_PERMISSION_BUTTON_LABEL": "VIEW REQUESTED PERMISSIONS",
				"DENY_AUTHORISATION_BUTTON_LABEL": "Deny Authorisation",
				"RENEW_AUTHORISATION_BUTTON_LABEL": "Renew Authorisation",
				"CONFIRM_BUTTON_ENABLE_SCREENREADER_LABEL": "Confirm button enable",
				"PRESS_DENY_SCREENREADER_LABEL": "Deny authorisation button will open the Deny authorisation Pop up"
			},
			"DENY_AUTHORISATION_POPUP": {
				"YES_BUTTON_LABEL": "Yes - deny authorisation",
				"GO_BACK_BUTTON_LABEL": "No - return to page",
				"CLOSE_BUTTON_LABEL": "Close",
				"DENY_AUTHORISATION_POPUP_MESSAGE_PRE": "Selecting 'Yes - deny authorisation' will cancel your request and return you to the Third Party Provider.",
				"DENY_AUTHORISATION_POPUP_MESSAGE_POST": "",
				"DENY_AUTHORISATION_HEADER": "Deny Authorisation",
				"POPUP_DISPLAYED_SCREENREADER_LABEL": "Pop Up Open",
				"PRESS_NO_SCREENREADER_LABEL": "button will close the pop up."
			},
			"CONSENT_VALIDITY": {
				"PRE_TILL_DATE_LABEL": "The consent is valid until ",
				"POST_TILL_DATE_LABEL": ". You can revoke access to this service through the Third Party provider or through 365 online / BOL.",
				"EXPIRY_INVALID_DATE_LABEL": "The consent provided is valid for an indefinite period until it is revoked. You can revoke access to this service through the Third Party provider or through 365 online / BOL."
			}
		}
	},
	"PISP": {
		"HEADER": {
			"LOGOURL": "https://d21fhsvwv2t3le.cloudfront.net/v3/boimayrelireland/consent-ui/img/BOI_logo.png",
			"BANK_LOGO_IMAGE_ALTERNET_LABEL": "Bank of Ireland logo",
			"THIRD_PARTY_LABEL": "Manage Third Party access to your Bank of Ireland accounts",
			"ACCOUNT_ACCESS_LABEL": "Account Access"
		},
		"FOOTER": {
			"ABOUT_US_LABEL": "About Us",
			"PRIVACY_POLICY_LABEL": "Cookie and Privacy Policy",
			"TNC_LABEL": "Terms and Conditions",
			"HELP_LABEL": "Help",
			"ABOUT_US_URL": "https://www.bankofireland.com/accountaccess/aboutus",
			"PRIVACY_POLICY_URL": "https://www.bankofireland.com/legal/privacy-statement",
			"TNC_URL": "https://www.365online.com/online365/spring/termsAndConditions",
			"HELP_URL": "https://www.bankofireland.com/accountaccess/help",
			"LINK_TOOLTIP_NEW_WINDOW": "Link will open in a new window.",
			"REGULATORY_LABEL": "Bank of Ireland (UK) plc is authorised by the Prudential Regulation Authority and regulated by the Financial Conduct Authority and the Prudential Regulation Authority."
		},
		"SESSION_TIMEOUT_POPUP": {
			"SESSION_TIMEOUT_POPUP_HEADER": "Session timeout",
			"SESSION_TIMEOUT_POPUP_MESSAGE": "Your session has timed out and you must return to the third party site.",
			"POPUP_DISPLAYED_SCREENREADER_LABEL": "Pop Up Open",
			"OK_BUTTON_LABEL": "Return to third party",
			"PRESS_NO_SCREENREADER_LABEL": "button will close the pop up."
		},
		"ACCESS_AUTHORISATION_POPUP": {
			"LOGO_HEADER": "../img/boi_logo_blue.png",
			"ACCESS_AUTHORISATION_HEADER": "Congratulations!",
			"ACCESS_AUTHORISATION_POPUP_MESSAGE_PRE": "Your transaction is complete. You will now be redirected back to the third party site.",
			"ACCESS_AUTHORISATION_POPUP_MESSAGE_POST": "No personal information has been shared with the third party. You will now be logged out of this service.",
			"POPUP_DISPLAYED_SCREENREADER_LABEL": "Pop Up Open"
		},
		"CANCEL_AUTHORISATION_POPUP": {
			"LOGO_HEADER": "../img/boi_logo_blue.png",
			"ACCESS_AUTHORISATION_HEADER": "Payment has not been executed.",
			"ACCESS_AUTHORISATION_POPUP_MESSAGE_PRE": "Your transaction has been canceled. You will now be redirected back to the third party site.",
			"ACCESS_AUTHORISATION_POPUP_MESSAGE_POST": "No personal information has been shared with the third party. You will now be logged out of this service",
			"POPUP_DISPLAYED_SCREENREADER_LABEL": "Pop Up Open"
		},
		"CANCEL_POPUP": {
			"YES_BUTTON_LABEL": "Yes - cancel payment",
			"NO_BUTTON_LABEL": "No - return to page",
			"CLOSE_BUTTON_LABEL": "Close",
			"CANCEL_POPUP_MESSAGE": "Selecting 'Yes - cancel payment' will cancel your request and return you to the Third Party Provider.",
			"CANCEL_POPUP_HEADER": "Cancel payment",
			"POPUP_DISPLAYED_SCREENREADER_LABEL": "Pop Up Open",
			"PRESS_NO_SCREENREADER_LABEL": "button will close the pop up."
		},
		"ACCOUNT_SELECTION_PAGE": {
			"PAGE_INSTRUCTION": {
				"ACCOUNT_SELECTION_HEADER": "Make a payment",
				"PAYMENT_CHECK_LABEL": "To complete the payment review the details, select an account to pay from and confirm by hitting the <b>Complete payment</b> button."
			},
			"PAYEE_TABLE": {
				"PAYEE_DETAILS_HEADER": "Payment details",
				"PAYMENT_INFO_LABEL": "Payment Information",
				"PAYMENT_INITIATED_BY_LABEL": "Payment initiated by:",
				"PAYEE_NAME_LABEL": "Payee name:",
				"PAYEE_REFERENCE_LABEL": "Reference:",
				"AMOUNT_LABEL": "Amount:",
				"PAY_FROM_LABEL": "Pay from",
				"SELECT_ACCOUNT_LABEL": "Select account",
				"PAYMENT_BIC_NSC_LABEL": "BIC / NSC:",
				"PAYMENT_IBAN_ACCOUNT_NUMBER_LABEL": "IBAN / Account No:",
				"NO_DATA_LABEL": "-"
			},
			"SELECT_ACCOUNT_TABLE": {
				"SELECT_ACCOUNT_HEADER": "Select account",
				"SELECT_ACCOUNT_TABLE_CAPTION": "Select account",
				"ACCOUNT_TYPE_COLUMN_HEADER": "Account Type",
				"CURRENCY_COLUMN_HEADER": "Currency",
				"BALANCE_COLUMN_HEADER": "Balance",
				"ACCOUNT_NUMBER_COLUMN_HEADER": "Account Number",
				"NICK_NAME_COLUMN_HEADER": "Nickname",
				"SELECT_ALL_COLUMN_HEADER": "Select all",
				"DISABLED_POPOVER_MSG": "Selection of joint accounts for account information sharing may be disabled if we need additional authorisation from one or more of the account holders. <a href='https://www.bankofireland.com/accountaccess/help' target='_blank'><span title='Link will open in a new window.'>Find out more in our help section</span><span class='sr-only'>Link will open in a new window.</span></a>.",
				"DISABLED_POPOVER_SCREENREADER_MSG": "This tooltip is for joint account. Please see joint account note above.",
				"DISABLED_ACCOUNT_MSG": "<b>A note on joint accounts - </b> Selection of joint accounts for account information sharing may be disabled if we need additional authorisation from one or more of the account holders. <a href='https://www.bankofireland.com/accountaccess/help' target='_blank'><span title='Link will open in a new window.'>Find out more in our help section</span><span class='sr-only'>Link will open in a new window.</span></a>."
			},
			"CUT_OFF_TIMES": {
				"CUT_OFF_TIMES_HEADING1": "Cut-off times",
				"CUT_OFF_TIMES_DESCRIPTION1": "Payments that are requested after the daily cut-off time Monday to Friday(4:30pm), or at any time on a Saturday, Sunday or Bank Holiday will be processed on the next Banking Day.",
				"CUT_OFF_TIMES_HEADING2": "",
				"CUT_OFF_TIMES_DESCRIPTION2": "Please note your balance may not update immediately."
			},
			"TRANSFER_LIMIT": {
				"TRANSFER_LIMIT_HEADING1": "Transfer limits",
				"TRANSFER_LIMIT_DESCRIPTION1": "There is a limit of &pound;10,000 per Banking day for transfers made using the Account Access site.",
				"TRANSFER_LIMIT_HEADING2": "",
				"TRANSFER_LIMIT_DESCRIPTION2": "This limit will be reduced by payments made to SMS activated payees on the same Banking Day using 365 Digital Banking Channels.",
				"TRANSFER_LIMIT_HEADING3": "",
				"TRANSFER_LIMIT_DESCRIPTION3": "There is an overall limit of &pound;20,000 per Banking Day which applies to payments made using 365 Digital Banking Channels and this Accounts Access site."
			},
			"NOT_SEEING_TEXT": "Not seeing the account(s) you're looking for? Some accounts are restricted -",
			"FIND_OUT_WHY_LABEL": "find out why",
			"BUTTONS": {
				"CANCEL_BUTTON_LABEL": "Cancel payment",
				"CONTINUE_BUTTON_LABEL": "Authorise payment",
				"RETRY_BUTTON_LABEL": "Retry",
				"BACK_TO_TOP_BUTTON_LABEL": "Back to top",				
				"PRESS_CANCEL_SCREENREADER_LABEL": "Cancel button will open the pop up.",
				"ACCOUNT_SELECT_INFO_LABEL": "Please choose an account from the list above to proceed",
				"RETURN_TO_TPP_BUTTON_LABEL": "Return to third party site"
			}
		},
		"REVIEW_CONFIRM_PAGE": {
			"PAGE_INSTRUCTION": {
				"PAGE_INSTRUCTION_PRE_LABEL": "",
				"REVIEW_CONFIRM_HEADER": "Review and confirm",
				"CONSENT_REVIEW_PROVIDED_LABEL": "Please review details and provide confirmation."
			},
			"PAYEE_TABLE": {
				"PAYEE_DETAILS_HEADER": "Payee details",
				"PAYMENT_INFO_LABEL": "Payment Information",
				"PAYMENT_INITIATED_BY_LABEL": "Payee initiated by",
				"PAYEE_NAME_LABEL": "Payee name",
				"PAYEE_REFERENCE_LABEL": "Reference",
				"AMOUNT_LABEL": "Amount",
				"PAY_FROM_LABEL": "Pay from"
			},
			"ACCEPT_PAYMENT_REQUEST_LABEL": "I confirm and authorise the payment instruction as set out above.",
			"BUTTONS": {
				"CANCEL_BUTTON_LABEL": "Cancel",
				"PAY_BUTTON_LABEL": "Confirm payment",
				"RETRY_BUTTON_LABEL": "Retry",
				"BACK_BUTTON_LABEL": "Back",
				"PAY_NOW_BTN_ENABLE_SCREENREADER_LABEL": "Confirm payment button enable",
				"PRESS_CANCEL_SCREENREADER_LABEL": "Cancel button will open the pop up."
			},
			"JURISDICTION_INFO": {
				"JURISDICTION_INFO_HEADING1": "Transfer limits",
				"JURISDICTION_INFO_DESCRIPTION1": "There is a limit of &#8364;10,000 per Banking Day for transfers made using the Account Access site.",
				"JURISDICTION_INFO_HEADING2": "",
				"JURISDICTION_INFO_DESCRIPTION2": "This limit will be reduced by transfer made to SMS activated payees on the same Banking Day using 365 Digital Banking Channels. Transfers made using this channel will also reduce the transfer limits available on 365 Digital Banking Channels.",
				"JURISDICTION_INFO_HEADING3": "",
				"JURISDICTION_INFO_DESCRIPTION3": "There is an overall limit of &#8364;20,000 per Banking Day which applies to transfers made using 365 Digital Banking Channels and this Account Access site.",
				"JURISDICTION_INFO_HEADING4": "Cut-off times",
				"JURISDICTION_INFO_DESCRIPTION4": "Transfers that are requested after the daily cut-off time Monday to Friday (4.30pm), or at any time on a Saturday, Sunday or Bank Holiday will be processed on the next Banking Day.",
				"JURISDICTION_INFO_HEADING5": "",
				"JURISDICTION_INFO_DESCRIPTION5": "Please note your balance may not update immediately."
			}
		}
	},
	"CISP": {
		"HEADER": {
			"LOGOURL": "https://d21fhsvwv2t3le.cloudfront.net/v3/boimayrelireland/consent-ui/img/BOI_logo.png",
			"BANK_LOGO_IMAGE_ALTERNET_LABEL": "Bank of Ireland logo",
			"THIRD_PARTY_LABEL": "Manage Third Party access to your Bank of Ireland accounts",
			"ACCOUNT_ACCESS_LABEL": "Account Access"
		},
		"FOOTER": {
			"ABOUT_US_LABEL": "About Us",
			"PRIVACY_POLICY_LABEL": "Cookie and Privacy Policy",
			"TNC_LABEL": "Terms and Conditions",
			"HELP_LABEL": "Help",
			"ABOUT_US_URL": "https://www.bankofireland.com/accountaccess/aboutus",
			"PRIVACY_POLICY_URL": "https://www.bankofireland.com/legal/privacy-statement",
			"TNC_URL": "https://www.365online.com/online365/spring/termsAndConditions",
			"HELP_URL": "https://www.bankofireland.com/accountaccess/help",
			"LINK_TOOLTIP_NEW_WINDOW": "Link will open in a new window.",
			"REGULATORY_LABEL": "Bank of Ireland (UK) plc is authorised by the Prudential Regulation Authority and regulated by the Financial Conduct Authority and the Prudential Regulation Authority."
		},
		"SESSION_TIMEOUT_POPUP": {
			"SESSION_TIMEOUT_POPUP_HEADER": "Session timeout",
			"SESSION_TIMEOUT_POPUP_MESSAGE": "Your session has timed out and you must return to the third party site.",
			"POPUP_DISPLAYED_SCREENREADER_LABEL": "Pop Up Open",
			"OK_BUTTON_LABEL": "Return to third party",
			"PRESS_NO_SCREENREADER_LABEL": "button will close the pop up."
		},
		"ACCESS_AUTHORISATION_POPUP": {
			"LOGO_HEADER": "../img/boi_logo_blue.png",
			"ACCESS_AUTHORISATION_HEADER": "Congratulations!",
			"ACCESS_AUTHORISATION_POPUP_MESSAGE_PRE": "Your transaction is complete. You will now be redirected back to the third party site.",
			"ACCESS_AUTHORISATION_POPUP_MESSAGE_POST": "No personal information has been shared with the third party. You will now be logged out of this service.",
			"POPUP_DISPLAYED_SCREENREADER_LABEL": "Pop Up Open"
		},
		"CANCEL_AUTHORISATION_POPUP": {
			"LOGO_HEADER": "../img/boi_logo_blue.png",
			"ACCESS_AUTHORISATION_HEADER": "Payment has not been executed.",
			"ACCESS_AUTHORISATION_POPUP_MESSAGE_PRE": "Your transaction has been canceled. You will now be redirected back to the third party site.",
			"ACCESS_AUTHORISATION_POPUP_MESSAGE_POST": "No personal information has been shared with the third party. You will now be logged out of this service",
			"POPUP_DISPLAYED_SCREENREADER_LABEL": "Pop Up Open"
		},
		"CANCEL_POPUP": {
			"YES_BUTTON_LABEL": "Yes - cancel payment",
			"NO_BUTTON_LABEL": "No - return to page",
			"CLOSE_BUTTON_LABEL": "Close",
			"CANCEL_POPUP_MESSAGE": "Selecting 'Yes - cancel payment' will cancel your request and return you to the Third Party Provider.",
			"CANCEL_POPUP_HEADER": "Cancel payment",
			"POPUP_DISPLAYED_SCREENREADER_LABEL": "Pop Up Open",
			"PRESS_NO_SCREENREADER_LABEL": "button will close the pop up."
		},
		"ACCOUNT_SELECTION_PAGE": {
			
			"PAGE_INSTRUCTION": {
				"ACCOUNT_SELECTION_HEADER": "Request for funds check",
				"PAGE_INSTRUCTION_PRE_LABEL": "",
				"PAGE_INSTRUCTION_POST_LABEL": "has requested access to information on your funds availability."
			},
			"PAGE_DESCRIPTION": {
				"PAGE_DESCRIPTION_LABEL": "Check the details and tick the <b>I confirm </b> box below to proceed."
			},
			
			"ACCOUNT_TABLE": {
				"ACCOUNT_DETAILS_HEADER": "Account details",
				"ACCOUNT_NAME_LABEL": "Account name:",
				"IBAN_NSC_LABEL": "IBAN / Account No:",
				"PAN_LABEL": "Card number:"
			},
			
			"PLEASE_NOTE": {
				"PLEASE_NOTE_HEADING1": "Please note",
				"PLEASE_NOTE_DESCRIPTION1": "Please note that",
				"PLEASE_NOTE_DESCRIPTION2": "will never see your account balance. We will only provide a ‘Yes or No’ answer to",
				"PLEASE_NOTE_DESCRIPTION3": "when you use their service."
			},
			
			"CONSENT_EXPIRATION": {
				"CONSENT_EXPIRATION_HEADING1": "Consent expiration",
				"CONSENT_EXPIRATION_DESCRIPTION1": "The consent is valid until ",
				"CONSENT_EXPIRATION_DESCRIPTION2": ". You can revoke access to this service through the Third Party provider or through 365 online / BOL.",
				"CONSENT_EXPIRATION_DESCRIPTION_WITHOUT_DATE":"The consent provided is valid for an indefinite period until it is revoked. You can revoke access to this service through the Third Party provider or through 365 online / BOL."
			},
			"CONFIRMATION_FUND_REQUESTS_FROM_THIRD_PARTY": "I confirm that you can respond to future confirmation of funds requests from this third party",
			"NOT_SEEING_TEXT": "Not seeing the account(s) you're looking for? Some accounts are restricted -",
			"BUTTONS": {
				"CANCEL_BUTTON_LABEL": "Cancel",
				"CONTINUE_BUTTON_LABEL": "Authorise",
				"RETRY_BUTTON_LABEL": "Retry",
				"BACK_TO_TOP_BUTTON_LABEL": "Back to top",
				"PRESS_CANCEL_SCREENREADER_LABEL": "Cancel button will open the pop up.",
				"ACCOUNT_SELECT_INFO_LABEL": "Please choose an account from the list above to proceed",
				"RETURN_TO_TPP_BUTTON_LABEL": "Return to third party site"
			}
		}
		
	},
	"ERROR_MESSAGES": {
		"110": "Unable to process your request. Please try again later.",
		"133": "Unable to process your request. Please try again later.",
		"134": "Invalid payer account provided. Request cannot be processed.",
		"137": "Invalid details provided. Request cannot be processed.",
		"500": "Unable to process your request. Please try again later.",
		"501": "Payment not permitted from this account. Request cannot be processed.",
		"502": "You have no eligible accounts. Please return to the third party site.",
		"503": "Unable to process your request. Please try again later.",
		"504": "Unable to process your request. Please try again later.",
		"514": "An error has occurred. Unable to complete transaction.",
		"515": "Unable to process your request. Please try again later.",
		"516": "Invalid payment details provided. Request cannot be processed.",
		"517": "Invalid payment details provided. Request cannot be processed.",
		"518": "Invalid payment details provided. Request cannot be processed.",
		"519": "Invalid payment details provided. Request cannot be processed.",
		"520": "Invalid payment details provided. Request cannot be processed.",
		"521": "Invalid payment details provided. Request cannot be processed.",
		"522": "Invalid payment details provided. Request cannot be processed.",
		"523": "Invalid payment details provided. Request cannot be processed.",
		"524": "Payment currency not supported. Request cannot be processed.",
		"525": "Invalid payment details provided. Request cannot be processed.",
		"526": "Invalid payment details provided. Request cannot be processed.",
		"527": "Invalid payment details provided. Request cannot be processed.",
		"528": "Invalid payment details provided. Request cannot be processed.",
		"529": "Invalid payment details provided. Request cannot be processed.",
		"530": "Invalid payment details provided. Request cannot be processed.",
		"531": "Invalid payment details provided. Request cannot be processed.",
		"532": "Invalid payment details provided. Request cannot be processed.",
		"533": "Invalid payment details provided. Request cannot be processed.",
		"534": "You are not authorized to make payments from this account.",
		"535": "The amount that you wish to transfer is greater than your available funds. Select another account if available or cancel this transaction.",
		"536": "You have exceeded your daily limit. Request cannot be processed.",
		"537": "Payment transfers of this type cannot exceed &pound;10,000. Request cannot be processed.",
		"538": "You have exceeded your daily limit. Request cannot be processed.",
		"539": "Payment detail not supported. Request cannot be processed.",
		"540": "Unable to process your request. Please try again later.",
		"541": "An error has occurred. Unable to complete transaction.",
		"542": "No transaction details found for the requested account(s)",
		"543": "Unable to process your request. Please try again later.",
		"544": "An error has occurred. Unable to complete transaction.",
		"545": "Unable to process your request. Please try again later.",
		"546": "Unable to process your request. Please try again later.",
		"547": "No eligible accounts for this request.",
		"548": "An error has occurred. Unable to complete transaction.",
		"549": "An error has occurred. Unable to complete transaction.",
		"557": "Unable to process your request. Please try again later.",
		"558": "Unable to process your request. Please try again later.",
		"559": "Unable to process your request. Please try again later.",
		"560": "Unable to process your request. Please try again later.",
		"561": "Invalid details.",
		"562": "Unable to process your request. Please try again later.",
		"563": "Unable to process your request. Please try again later.",
		"564": "The payer and payee account cannot be same.",
		"565": "Invalid payment details provided. Request cannot be processed.",
		"574": "Unable to process your request. Please try again later.",
		"702": "Unable to process your request. Please try again later.",
		"704": "Invalid details provided. Request cannot be processed",
		"706": "Unable to process your request. Please try again later.",
		"712": "Unable to process your request. Please try again later.",
		"727": "Invalid details provided. Request cannot be processed",
		"731": "Your session has timed out and you must return to the third party site.",
		"999": "You have no eligible accounts. Please return to the third party site.",
		"GENERIC_ERROR": "Your session has been terminated and you have been logged out, please return to the Third Party Site.",
		"GENERIC_ERROR_DETAILS": "For security reasons the use of the back, forward and refresh buttons of the browser are not allowed. Your session will also be terminated if you perform another action while the page is still loading.",
		"731_DETAILS": "",
		"110_DETAILS": "",
		"133_DETAILS": "",
		"134_DETAILS": "",
		"137_DETAILS": "",
		"500_DETAILS": "",
		"501_DETAILS": "",
		"502_DETAILS": "",
		"503_DETAILS": "",
		"504_DETAILS": "",
		"514_DETAILS": "",
		"515_DETAILS": "",
		"516_DETAILS": "",
		"517_DETAILS": "",
		"518_DETAILS": "",
		"519_DETAILS": "",
		"520_DETAILS": "",
		"521_DETAILS": "",
		"522_DETAILS": "",
		"523_DETAILS": "",
		"524_DETAILS": "",
		"525_DETAILS": "",
		"526_DETAILS": "",
		"527_DETAILS": "",
		"528_DETAILS": "",
		"529_DETAILS": "",
		"530_DETAILS": "",
		"531_DETAILS": "",
		"532_DETAILS": "",
		"533_DETAILS": "",
		"534_DETAILS": "",
		"535_DETAILS": "",
		"536_DETAILS": "",
		"537_DETAILS": "",
		"538_DETAILS": "",
		"539_DETAILS": "",
		"540_DETAILS": "",
		"541_DETAILS": "",
		"542_DETAILS": "",
		"543_DETAILS": "",
		"544_DETAILS": "",
		"545_DETAILS": "",
		"546_DETAILS": "",
		"547_DETAILS": "",
		"548_DETAILS": "",
		"549_DETAILS": "",
		"557_DETAILS": "",
		"558_DETAILS": "",
		"559_DETAILS": "",
		"560_DETAILS": "",
		"561_DETAILS": "",
		"562_DETAILS": "",
		"563_DETAILS": "",
		"564_DETAILS": "",
		"565_DETAILS": "",
		"574_DETAILS": "",
		"702_DETAILS": "",
		"704_DETAILS": "",
		"706_DETAILS": "",
		"712_DETAILS": "",
		"727_DETAILS": "",
		"UNABLE_REQUEST_PROCESS": "Unable to process your request. Please try again later.",
		"ALERT_LABEL": "Alert",
		"CORRELATION_LABEL": "Your error reference number is ",
		"COOKIE_ENABLE_MSG": "Please enable cookies on your browser to use the Account Access site. For more information see our <a href='https://www.bankofireland.com/legal/privacy-statement'>Cookie and Privacy policy</a>.",
		"COOKIE_ENABLE_MSG_DETAILS": "",
		"JAVASCRIPT_ENABLE_MSG": "You must have JavaScript enabled to use this site",
		"JAVASCRIPT_ENABLE_MSG_DETAILS": ""
	}
}
